17cd06878448454aeca3cb9f7ffdacfb6e9f31a54021e82f71
e6c6a8a3eb5e406a8b4e5268162a113b67bc19259402809080
da6930ba0205bd25bb865f9bb5b61186f951c8836bf782e8d3
2132089cf2ee29233e9677578fb3149d0bea7f434c6754f56d
a807fd2dcc81e87a2d4d7a30bd0f410c65e98e030454e89829
86e7eda92e47a769174cd336fe84a0b843a5105763cf66e8a4
c0d0130f22b3c7f5ad9aaa9d8b778feb4f060828af6d2b3e16
1fb3ffe773527c5075f75c8c8c7c06d32da9b68c3f1b7c81d1
ace6b4236ac23ccce06119a7a644fae2c19ab9c8ee66c84e1c
e40dd985444994c168b0b94f154a8f94c24520cef0cf8f7fc1
df9854cf1d206bf113f4d81c83def793a6168108cfbf36cd0d
0bbaf6bc0427dbba4d501002cc1e64123b890c26fa70c90eea
d9052b9dc5ffbd5376f93723cd7976e1928076a01a0ebd602f
c8f91c4d2b01752038c71258a493c8696b02d5641760e05423
0c0880bcfcf0cb8d617d652f59539e6d0519aa612b14d363a3
d1e2171b1f9192e3f858d5cd0b8cdb002f9c1acf4093542d80
9f0bce75e95d1fd8f011e21177898e15fb91b482f046b5a566
e6716639a9833a9d58f4f48cfff736179f5d2428b7b9fc44d3
9628d88187d7a9a315f956aeb77be18173f5e4454bd322df70
c4a7dc880a14371ebbeb809c8b7e82967dca4eb12159303832
d66eab4a09f049e1621f6b8a3925365cfee6d6372a47d65ab6
9d71578aeae87a516be0852f226477aaa28c7a375508b71e60
8be6c6aa3f44c31cb8609e9b56d16785674dd6f448d2298869
8e366fb4be39407016adea5ba1e9f12d0f6a83783a6702d1fb
0e3c9b03cbe1b21964d19b9254e6da342fabf31afd4ae61dd5
78bfcd244b964dd60e4ca0c747a3f3d57694439e20ef08ddaf
0150066ed8558dd8558f9136402de5962347cab1c35a035eae
d51466463dd052107caeb36e0995b22e0d3d12b7f90e7bf6ae
591a0b393005ce3000db011cbc775dae9b6bd10d0ba55ef590
28b25570502d10da15e2d28623f4c4a7907a0ebd6deb0bb7fe
b279fa0af31b747e6f055a723cf1e6f73cb34fed03c42d6e09
60f0962a7095175d4cce8cdf84e7725703e57d4e4ffc7ec517
0a17f956106231b29877d1b136c43a39a53dfbdce1726ce3bf
e0bdb83cd376c2d9d3b05d83fa1624b281d3b2c0dc9a81e33d
b4d410c761cbf17e0380c06c5e26866ebe38dedd7d13cede31
f8c51205d1a116cc2654a2b611c5f512178d7496b0b5e09e86
16024f975de6c4cd7bd0c7e97f9584dca3abef2518d17cc436
4d7c0c98c27fad279ceeb1e20f31015b506fc749b2045ec585
23970a8ed663cd96f025f19e2b7022795df82f0b7d3790db21
96e0e35bdeecfcf6d6f838c0dfa16777b5d9ba06b91108373f
