b02eff680e6a142c4e15094dbee06fd0bb91b4c7206ea0b917
ca61b797ea02bc272386200e6889202799c81fc0bc4ed5c782
88061a8c110b4b44ec1ae263f1cf93c8a53b68f2083660f27e
622cf5fb5b1bbea0caee3faa6670abebdf8a71e0769d378f5c
6633488fcfbe2e8539dd6d42927e90c3fc3bd0fd44341e3f95
18352e1f3eba0730f7027d51381fa91b6ec6ebda3fbcfbea2a
64b0f647779a6226ac969477e0438d99e96487a41c31fd2402
a124220f9839b578853bc1aa5b93abf134849783c0a028ed5f
63835ae504aebb803b4d427fbedd2c2742ba4af2944872d0a7
e940703748897b138298ff4bde1fdec7555d7fcfa49f69cfc9
078ad4b063ac0721abc130a8a43f663c431e244a7d62685c88
a655b8ca23a99405f0029b63a26fd434af41f8a004f8b6171c
432ba75142c8d9a1ac3b2832f4db69644be11601e8cce0ec26
e7c3406e4b2ec57522934e5525b5db152c813e54360f64dd9d
45066bbff9f1ea32cacb40d3a7858659e1256d3a2422f83ff8
c39d2574048f78f1973d887c060fb461232804301760a44861
89c62e4f62e0dac5f8a272ddef175aee9239fdd65e1ab6316a
f96d2c52e1a40cdb67cb68afb2034020b9f44cf294598a1093
b61ce2adb4b7bdb6494efb852410bed1e9c5f67e930da3ca02
7bf75f83a5102d35e151de7671de2f1d77b70a83275f5822cc
4b2e6a56ed457ea124326f156ee4e35adec0fd1b004439f3d5
376ea1a0ea1796c710494b217bee8167cc768aaa0775b4e8d5
f60550fce586e2092d3cbabb03c03918753670d40f35f1d08a
8f23c6f3499db7ec7a11cc0ec19439cf07c253a02c7545f0ee
7e036aa2b966a84ba6b57a2513af11b875864df23f0c1ea4cb
8b0fe1226fa122fb9f2b7c744650e56fe297094f5e4c290238
d27150a408b9271301de2bf538f7e7de097a7d52c1686f7be3
d8ebd0ccb09094cc8fff6184f71e1d91a755fe241be7941435
bad6ff1d744d027f54da20997657a7e718510a6e75c406bee0
c132b062c606e7d1e9b9243c83ffc103774667285686a5bd9d
c59a7979ea8be8431105423a55905a89bd0c82dec05feab78e
92699614b58ed9c98cd6eac7fb7dcd48f6ce945a669699d660
d2199e974fca107888a6e2872c075c6f90060ec3af3ded5406
3b73d4934535265fcdbccd53ec1fe4acbd85eb25ee5fcc62f9
036932cbd85ae91223b3d62bcda7d08dc6d8047d1b1b5026d8
3d9d44412602e3d338240c893701ef7ba6ddbebaa8255c6925
b7007683390edbd1ea27fcc693c79e1b86bbcd88b1466ea83c
d0203e4e19ea06040a38872be6f68c9a7e70076de04b403e6d
649545249c971e73b79b477aca7cdc6a175eb3a3b1e25823fb
3cd0fc7d52152082bf12b5658eceab8468307f932bfbd5b5c5
